[
        {
            "geometry": {
                "location": {
                    "lat": 51.32999,
                    "lng": 12.39259
                }
            },
            "icon": "http://maps.gstatic.com/mapfiles/place_api/icons/generic_business-71.png",
            "id": "8bb62561ca97d167f81f528832defb96f45db749",
            "name": "Botanischer Garten",
            "opening_hours": {
                "open_now": true,
                "weekday_text": []
            },
            "photos": [
                {
                    "height": 648,
                    "html_attributions": [
                        "From a Google User"
                    ],
                    "photo_reference": "CnRoAAAA7-R98ULbiKb33L5d8aYg7y2vnSyVKGD5FoocMbP071ptIQ4wGY5-KM02bhd8VyippvQs1xeGN-CMlAP5shEUalIXdlPPqifi_1Mg-LtZqRpmTENJxoHoO8TStIMXTV51jKU0AOq2aK186gb90UBGkxIQehZ5K3utF5CFHoaP-JgSARoUyg0dYbdVmeP8tLtq9V1jSo3qNPM",
                    "width": 486
                }
            ],
            "place_id": "ChIJLx6PPDb4pkcRYKEt7CpGEHk",
            "rating": 4.3,
            "reference": "CnRlAAAAwQttfvWIhpZ-v8PSqQbhWMrPXKoOuShw2J2Neh2uLbC4LCzTWuq2ZKPpT83qpFtBg8i92wqEawG44EDpvc-UH2utQ0GVlPiQeQ1ihqUbqYiQOemM5_RGgKeVDowuJ_dzmSEXk9Qh_We5KWVmmzGfkRIQ701VyefuFYqSTf2_yvEd8hoUHPuTgHmrfhS9M73jMBCd8wFTZeg",
            "scope": "GOOGLE",
            "types": [
                "park",
                "establishment"
            ],
            "vicinity": "Linnéstraße 1, Leipzig"
        },
        {
            "geometry": {
                "location": {
                    "lat": 51.25806,
                    "lng": 12.42749
                }
            },
            "icon": "http://maps.gstatic.com/mapfiles/place_api/icons/generic_business-71.png",
            "id": "c74764caa5b39da0f218deafba5ae7a9e1754c60",
            "name": "Kanupark Markkleeberg",
            "place_id": "ChIJs5kzbOz7pkcRey9iaqOoPXw",
            "rating": 4.4,
            "reference": "CnRoAAAArW_u-frZzLon0nx1juveO5CfB7CmLP4huyTT0zPUjmUJNmko96Iw-k-pfd76WtHqJGC4-zhKeNWv2FUk-uswy35beLDzC3qZhXNIoU7HmuH6ZldS3pqnan8scukU3Dl7Ap_ofFadoqQjM62S7OzVfBIQ47kW7Vb2F3vXf7wmqk7XfhoUFwtgngGKWutiKws5LRodeXR_EPE",
            "scope": "GOOGLE",
            "types": [
                "park",
                "establishment"
            ],
            "vicinity": "Wildwasserkehre 1, Markkleeberg"
        },
        {
            "geometry": {
                "location": {
                    "lat": 51.299917,
                    "lng": 12.37183
                }
            },
            "icon": "http://maps.gstatic.com/mapfiles/place_api/icons/zoo-71.png",
            "id": "ff8cb19f27eb0e6d114a4e32d84a995d8e1f4091",
            "name": "Wildpark der Stadt Leipzig",
            "photos": [
                {
                    "height": 1154,
                    "html_attributions": [
                        "From a Google User"
                    ],
                    "photo_reference": "CnRwAAAA8EOn15sFnF9M6P00YX6X_FxlOsFFVycOcqrhbFtTx1ohqUOKWJnVz6feYJlwe6qqJQwx_y9C2y7WWfeIVJbYuGkmObgJupf7ETvIAC_BNa3bhgP9-cBRCTNPObpzcIxRYrBfHSWgxNQbZn5tmWu4nRIQ6CcY4WFZFedq37ICzbssUxoU7Csxacxj7DTZE6bgXrj5PCRChU8",
                    "width": 2048
                }
            ],
            "place_id": "ChIJJaPfIer5pkcR52z9-dTg4Wk",
            "rating": 4.2,
            "reference": "CnRtAAAACEp1RlZBPoeKK4ySi_4VvWWBzwM1OHmht6tUd5-IjQvf5pjRFljz0R9FVEF9ciwZGRrXDboPbhQPGUvGDI7ZDFxthTrn0zj1pyyaMbyTCTXaOTCCGi1YM-L7L4Ws_6V3zYqmgcqx3J61N_Qw-z3TNRIQbl7qLAFaAVHDIHmtxAVeyBoU17vMLaNWw11BSSUMkeWAV5xdY2g",
            "scope": "GOOGLE",
            "types": [
                "park",
                "zoo",
                "establishment"
            ],
            "vicinity": "Koburger Straße 12a, Leipzig"
        },
        {
            "geometry": {
                "location": {
                    "lat": 51.335161,
                    "lng": 12.395369
                }
            },
            "icon": "http://maps.gstatic.com/mapfiles/place_api/icons/generic_business-71.png",
            "id": "2b8665eb5b1859e1843346ba7731b26b19079c40",
            "name": "Lene-Voigt Park",
            "photos": [
                {
                    "height": 947,
                    "html_attributions": [
                        "From a Google User"
                    ],
                    "photo_reference": "CnRoAAAAYFo-dU_OdRBPhGF6xkKOgyxekJup6Xy_j_pL_Qq1YNtADz3CpnqUCuYwrZpnNLpjVtFlSHELSl2EZ6ELObhhR15EYJT3k2wtu8lkWxdXQ-b2SHiI-x2UgCE7wILOGWnelmBKjU8o5qKK5pVbXsGo1BIQTYeZbMwBQpoLBLRYiRTMhhoU1Rz6hSJ3tWSlmNYd-V5wkHDuXVE",
                    "width": 1268
                }
            ],
            "place_id": "ChIJWYgaV0b4pkcR2Kd3CAfDzYo",
            "reference": "CnRjAAAAEfhZ5dZGcXEnlrGN00Sz7u0kA9DbjLaNUhX7ITD-yhFLvVBgmgZYzPTtyP-P00C-w7wUQBgEpvm50V3z40Ki1GqJyXYbVzj0snTlRUIROt283SsQ9L2HkEuuYiVQVPA2C5nFmM2-lbQyoHLXrny1iBIQrZ9VPjPxHyI-vul8-OWKcRoUC7OQjCRwvudeTCPpA6RWtXQ2NLY",
            "scope": "GOOGLE",
            "types": [
                "park",
                "establishment"
            ],
            "vicinity": "Reichpietschstraße, Leipzig"
        },
        {
            "geometry": {
                "location": {
                    "lat": 51.334718,
                    "lng": 12.363192
                }
            },
            "icon": "http://maps.gstatic.com/mapfiles/place_api/icons/generic_business-71.png",
            "id": "d397a2ff230a8edaa39733cb69472fdba718a828",
            "name": "Johannapark",
            "photos": [
                {
                    "height": 976,
                    "html_attributions": [
                        "From a Google User"
                    ],
                    "photo_reference": "CnRqAAAAA0QmJighuszRrVkwHN4fyalUu6kY5VTNMzv4P5Mt5GmWOCTFkXlna8fDOz8JT21Ztc8eNuM-O54OZC9qERJbHtDHAJ8pZyCu7FrUpgpPtSrWy7cUM_BnyPoyhVhfjQs0yiesIPgoj832cM35WwT1mRIQsMO0OwZ3cAMXwqVMieLxCBoUEXvryGhKl_S6jaM0RzKaXBnzq7w",
                    "width": 1500
                }
            ],
            "place_id": "ChIJSRY96of3pkcRyhPQWJKnqIE",
            "rating": 4.8,
            "reference": "CmRfAAAAthZ7Cjm1xtRFn2h3_PyIMrYGof_sUbQebP5dQxxtsmwVJN_OhsxZn9qncf93hB12PX_NtFoeMRfhkFI22Ggcho22_z4Y3BQ26WwIodDING2Rzvat79H_zAKAf5QoW0JLEhDE6uH5j-YMXY_6i7moTMehGhS-f8uYC-xOBccH_2giXK-PiNAXsA",
            "scope": "GOOGLE",
            "types": [
                "park",
                "establishment"
            ],
            "vicinity": "Leipzig"
        },
        {
            "geometry": {
                "location": {
                    "lat": 51.336035,
                    "lng": 12.344821
                }
            },
            "icon": "http://maps.gstatic.com/mapfiles/place_api/icons/generic_business-71.png",
            "id": "5cbf2852a4dad6259022a4c8c26abc535484fb7d",
            "name": "Palmengarten",
            "place_id": "ChIJS-NFPJr3pkcRGFOXfM4dP48",
            "reference": "CmRgAAAAGaCIdKOn56V5ed8S1wP5R5JqabpDpBF8V2XNpiytX-3nR8WeFJ98FY1ZgYXwPDm_b_O5UZpg0woEHKKc_b9GvulmfhtC6OPADQ3r_-WOPiEqo1S9kK5bI-pM1akLeWsMEhAR5xcilVKDeiHgEvm8WyxDGhSoO6Hh_OzFB2BzUcl90hRYRBEzCQ",
            "scope": "GOOGLE",
            "types": [
                "park",
                "establishment"
            ],
            "vicinity": "Jahnallee 52, Leipzig"
        },
        {
            "geometry": {
                "location": {
                    "lat": 51.26018,
                    "lng": 12.428598
                }
            },
            "icon": "http://maps.gstatic.com/mapfiles/place_api/icons/restaurant-71.png",
            "id": "4c2689967e4d5b9e51791065cc9d04cf93e6aef5",
            "name": "Seepark Auenhain",
            "opening_hours": {
                "open_now": true,
                "weekday_text": []
            },
            "photos": [
                {
                    "height": 1151,
                    "html_attributions": [],
                    "photo_reference": "CnRwAAAAVcZTx2Ydu74qvy_xPSolSHDLnIcVWTSSRX4xRp28usSjR9zI6ZgF-373odHTfDd-T5RHHyuj7e31AQi7Kfpta_DEViB28Uq8SJSIH3-cMaxOBNjtr4l_SU8Ny97z7LA6jSDQ1Vb-9gbWuxirPwglBhIQUb1VUYhU5FPo62N3n84PAhoUISHXCmfESCfpzvC9b0efVIAL7tk",
                    "width": 1151
                }
            ],
            "place_id": "ChIJN0-Wul_5pkcRRFt9SKrfqUo",
            "rating": 4.2,
            "reference": "CnRjAAAAqSuTbd0aawGF1VcwKMO9jsdxm63-3HVebOzvEpOJZAHGSMYnoVCCndJMLsTuby4zX1Sdy5068QUsH1WlM2c-2f8XIM3GoxbrEVmMWazXfkHmJmEiL4-jgh-ElmK-gMDUGPi7RK8z3kdMBT39OeuOBxIQul9sMIpgMz5WM5FxRxCkJRoUoCAVaFnS5tr4keG9dfcHDiL2k4k",
            "scope": "GOOGLE",
            "types": [
                "restaurant",
                "campground",
                "park",
                "lodging",
                "food",
                "spa",
                "hair_care",
                "health",
                "establishment"
            ],
            "vicinity": "Am Feriendorf 2, Markkleeberg"
        },
        {
            "geometry": {
                "location": {
                    "lat": 51.343005,
                    "lng": 12.374264
                }
            },
            "icon": "http://maps.gstatic.com/mapfiles/place_api/icons/generic_business-71.png",
            "id": "da8994fec61ebcc5cbdac1472349b8c00e94f0b9",
            "name": "Chillhouse Leipzig Zentrum",
            "opening_hours": {
                "open_now": true,
                "weekday_text": []
            },
            "photos": [
                {
                    "height": 374,
                    "html_attributions": [],
                    "photo_reference": "CpQBhAAAANA3qW36_LWqTEz3yVlQc3pRICuhVn-JKXx99jreL_s5OLqjzQ1eWl95hTcMtoee8hJ3wuPgcugpXZweF59jKWVM5BdnW7fghne5jgU6Dtia6FhEY1C9hwPaf2GIWWvgeu6LGM1i_2Z-nOQOLhPg8-s4Zx9qczvDHZmcAQMTA1KzdAkgrCeZlMiCfWft3Ff-fRIQecM_spRAZB7Y5w9aVwGTzxoUehIclKAKxQEtdxAZuoMRigW5si0",
                    "width": 374
                }
            ],
            "place_id": "ChIJUQdWpCH4pkcRvtgGeekjBR0",
            "rating": 4.2,
            "reference": "CnRtAAAAfbKDZm6aJDjr-9gRvACrRoffSk5TIpKaHneO2XFbhiDRXX-_2o4t0MA03__zMHQeV929TwoeFMW1IM__D7pOHYYyw0IgfvhNY2AnabzWqYH6RCToPojtkCxWJI6xy7oWTr4S_5S3scAmUoahdMQ7UBIQio3uIruxnK8FqbZBeIHWaxoU32z_yXvJKsYGaPAXAdTkkHNhhWo",
            "scope": "GOOGLE",
            "types": [
                "park",
                "establishment"
            ],
            "vicinity": "Brühl 10/12, Leipzig"
        },
        {
            "geometry": {
                "location": {
                    "lat": 51.369129,
                    "lng": 12.41771
                }
            },
            "icon": "http://maps.gstatic.com/mapfiles/place_api/icons/generic_business-71.png",
            "id": "d529edc8b1098b04fe0b623e8b6bb2800c35431f",
            "name": "Abtnaundorfer Park",
            "photos": [
                {
                    "height": 1224,
                    "html_attributions": [
                        "From a Google User"
                    ],
                    "photo_reference": "CoQBcgAAAILIQIGOTSEHpH6m7EY61tNHfxB-kujEXZO4f-zI-f5CKudUR5zhbWpQ1jOTvqCMx3QAs1jZ5o63W24cop5Chcz59JdbYWzbX7iN1fMHxZA_4jv4si1yai9JPKfdFy9f0WbXU4S0UTbLVxskkXsFQdVmWZ3ej5Qg8MFVbsbEny7EEhD_WAP24GQ7egw3NEKLCJpnGhQORLJzvI-GCp65Th0B5STldeKX-w",
                    "width": 1632
                }
            ],
            "place_id": "ChIJNfyZa9xXpkcR1rYimS-C0IE",
            "reference": "CnRmAAAA_hEVjYCWLzjAQgZZu3Chz_JDJ2rIzk1DzHq1MZ45NiF1zgEHrfeTvEqIcPU1OBbHpQa9W3cX1lpUh6xyLY9kpzknC9U2Zp9HCgt2y8HmWheF_7KEL6z8W287VDSE7Xaf9CdxX8eFC5zqMkKAffQeGBIQosU3l9_TMv6ajj103PJROxoU4kI3cc7n1qEvPBBlmG0ZFnfAm-U",
            "scope": "GOOGLE",
            "types": [
                "park",
                "establishment"
            ],
            "vicinity": "Abtnaundorfer Straße, Leipzig"
        },
        {
            "geometry": {
                "location": {
                    "lat": 51.317067,
                    "lng": 12.254726
                }
            },
            "icon": "http://maps.gstatic.com/mapfiles/place_api/icons/camping-71.png",
            "id": "947601fff5e21d834204b4a51d8149b9a341575e",
            "name": "Campingplatz am Kulkwitzer See",
            "place_id": "ChIJ-6NGH5j2pkcR1TyM3wuaGiY",
            "reference": "CoQBcQAAAMZYrRArUC7mhGYAFZlcbigvT3hEDjTYasNxrOtvvMMPKZhOpzkAlyALykNM8N1SF70I_pVIFVll7h6uSYWagGWkXqyzWjz84-aAjK5B_GVi6kC5flQazTOqU2lQwy_zF4iPlkYmnq4oNjtHTgzaxDcw6LE0912y_ZPZ_bd1zVoUEhAX0cq-7Y4Ll5HwGocT3aBjGhQSU7aeEk8qEZgL279zqHpoNhZKdQ",
            "scope": "GOOGLE",
            "types": [
                "campground",
                "park",
                "lodging",
                "establishment"
            ],
            "vicinity": "Seestraße 1, Leipzig"
        },
        {
            "geometry": {
                "location": {
                    "lat": 51.21607,
                    "lng": 12.34107
                }
            },
            "icon": "http://maps.gstatic.com/mapfiles/place_api/icons/generic_business-71.png",
            "id": "717089a71098d08f34f2838fea7cc4c68203a89c",
            "name": "Kräutergarten",
            "place_id": "ChIJV2H3U7_6pkcRBsC4DridfOs",
            "reference": "CnRiAAAAchS-pwcBTgQ4fS5kVy8Ow6uZGScDAQBWWWKRRz5FlFL6_jBzr7Ia3T48DO3C8SQoEjFMpfuPqOm6R2Ne5yEFiq5cGBUeW9IlORIRgiSy7pZjHwfgu88YBVV48mbPOIjyGPZdCHnqIop_bmgPIRBSLhIQ75ui3ewoVM0hcyYBbS7yzxoUMhqiMY6QXyTFhxvs6_DNLIcUTcI",
            "scope": "GOOGLE",
            "types": [
                "park",
                "establishment"
            ],
            "vicinity": "Zur Harth 1, Zwenkau"
        },
        {
            "geometry": {
                "location": {
                    "lat": 51.332461,
                    "lng": 12.453036
                }
            },
            "icon": "http://maps.gstatic.com/mapfiles/place_api/icons/shopping-71.png",
            "id": "30cba403c054fdbe511500a8da7407a972e36eb7",
            "name": "Gärtnerei Naumann; Inh. Jens Naumann",
            "opening_hours": {
                "open_now": true,
                "weekday_text": []
            },
            "place_id": "ChIJ5w4B5MH4pkcRkRj5fP30r80",
            "reference": "CoQBeQAAAELld7Dcd-UugHVJP3-XZ1kghSJyc6zYr3Q4sJ3wjaGX8TxJ-6ksY02-DdzI8y4pJFBfQ186Xk4jo509sJnW-rbLSPbGUPjvFxJlk0hROiO2JY4wERDIJCHrlHwtLnXcgHgBGJ4BOg8K19rgoC5UGsd5XC5VmIOJwNkf4V9dXq4GEhArJrLroBf93k_kCvzrvsD9GhRdIoBgWP6Oz-EJy62aXLvZ19GLMg",
            "scope": "GOOGLE",
            "types": [
                "park",
                "home_goods_store",
                "store",
                "establishment"
            ],
            "vicinity": "Engelsdorfer Straße 156, Leipzig"
        },
        {
            "geometry": {
                "location": {
                    "lat": 51.136238,
                    "lng": 12.108439
                }
            },
            "icon": "http://maps.gstatic.com/mapfiles/place_api/icons/generic_business-71.png",
            "id": "a7b366cb095aa4759f2f9dfe5a26697be3a0ff0d",
            "name": "Grubengelände Nordfeld Jaucha",
            "place_id": "ChIJ33ulFYHrpkcRnLAqwmynfc4",
            "reference": "CoQBcgAAAGLGqcCbwpSdBvxQebizzYPeMvx4XVTJ4e4DK--LOppSCuKBEaPjHydh4CZ4pmhBNWsitfViQs9lAQvr2ud1J0WLSFqQ9B7xcNFN6a3-pBeogDy7MG-ESqVd_-XTKkY8YRdhr0J3nUFM3xAJXLJqVWSOJtzlcy3IR_bl5Oj9xUgREhA0zc7nYK0a0mR6S_KTjs_LGhRlcV4y0-MVEkniXFtx1x8vdpqLNw",
            "scope": "GOOGLE",
            "types": [
                "park",
                "establishment"
            ],
            "vicinity": "Germany"
        },
        {
            "geometry": {
                "location": {
                    "lat": 51.210148,
                    "lng": 12.316335
                }
            },
            "icon": "http://maps.gstatic.com/mapfiles/place_api/icons/generic_business-71.png",
            "id": "80b45984347193815181b04933de8d4cfb7dcb2c",
            "name": "Imnitzer Park",
            "place_id": "ChIJM8rI3q76pkcRvP37ayRft6Q",
            "reference": "CnRhAAAA20dnRcRRkXlaw8KH7hUQ86VHG_W0y6sQjmFx_xYOc4jJxRY8G6DazymHxUndSEofFEx62dSGV1njAjkXp8endiIX-B11cFiJ9UjCDTZJHAGwmZEEs-GEufhFPmQ2C2nGnp5NlyK5VTe7OdnkGNRHKxIQb_s5Natffxqp147oRATHnRoU_aXEF8LqjPA_fyP3qmy3067kL7Y",
            "scope": "GOOGLE",
            "types": [
                "park",
                "establishment"
            ],
            "vicinity": "Germany"
        },
        {
            "geometry": {
                "location": {
                    "lat": 51.27426,
                    "lng": 12.37753
                }
            },
            "icon": "http://maps.gstatic.com/mapfiles/place_api/icons/restaurant-71.png",
            "id": "0341a157c26dabdc3c74a2913d002d2617a93857",
            "name": "Mondgarten",
            "opening_hours": {
                "open_now": false,
                "weekday_text": []
            },
            "place_id": "ChIJw3YnRyT6pkcRG0lWvsvaPj8",
            "reference": "CmRdAAAARst3P52fLuM0IM6dzuO1r1jp5BYXI_lAa1rxPnPigx3HPUOWy_i8ZcTsK3P4P370SnQyq6htv0-WETISHbLCSN37kiu6Sgl388TdWrZQqSJEokAVxJgtK4ZUwvQCac_XEhCbGKxClyIIob_ON-IouoI9GhQHDeFaGKKeIHXXOUP7U1krXoSGHw",
            "scope": "GOOGLE",
            "types": [
                "park",
                "restaurant",
                "food",
                "establishment"
            ],
            "vicinity": "Hauptstraße 85, Markkleeberg"
        },
        {
            "geometry": {
                "location": {
                    "lat": 51.28131,
                    "lng": 12.57654
                }
            },
            "icon": "http://maps.gstatic.com/mapfiles/place_api/icons/pet-71.png",
            "id": "aea65b7eb8a8498da677a81cc00fe292567d9701",
            "name": "Tara Teich & Garten",
            "opening_hours": {
                "open_now": true,
                "weekday_text": []
            },
            "photos": [
                {
                    "height": 525,
                    "html_attributions": [],
                    "photo_reference": "CnRnAAAA1VVBHhRCUTad2to7tTy0EmaoR7z0ESd_-KAnP-qvOQeBEPfNkDjEdP-EirXwYJKF6H6NFp_ii4iNdXqOZynEjV4A5WGPjyatR-4DQG-1EEwrpHrZkdH8TfxTt9kStECpiIBTrlUyzWHJDhLXGotx0RIQkwW3x0poKzM9p5XrGaRlDBoUIX-EDLUmEW_GdOrvockVW4BsGq8",
                    "width": 700
                }
            ],
            "place_id": "ChIJX7lC-N8Bp0cR5zEAqVY0Dtk",
            "reference": "CnRnAAAAsVQBebP_khCkV7qmeY9UYXWlk3C2SJo8W6eSFmdU64998iQ_tjwg0vFAGofhX5014wAULpav4z_KywhyLNSk0kSC4_srIti0CLXEVAnLLRKKePVlKkdpfGZs-IJ2N_0w1XiGsuoiV3FOux5fnSO9XhIQqkp9JXl3gk2yNJT5I1-z0BoUguXhyCZ9RhO6ss8TDRQ8f00LCQ8",
            "scope": "GOOGLE",
            "types": [
                "park",
                "general_contractor",
                "pet_store",
                "home_goods_store",
                "store",
                "establishment"
            ],
            "vicinity": "Dieselstraße 11, Naunhof"
        },
        {
            "geometry": {
                "location": {
                    "lat": 51.153564,
                    "lng": 12.623293
                }
            },
            "icon": "http://maps.gstatic.com/mapfiles/place_api/icons/camping-71.png",
            "id": "15abd14e999ddaea6327a4e98e6007bb677487b9",
            "name": "Campingplatz Landidyll",
            "place_id": "ChIJIx-hnKQcp0cRbLx-CHPsj_k",
            "reference": "CnRqAAAAtCcTBdxz0TwVklmrLrwycZDorQxECn0fN50F5hh427pwBJdYvKwyYeNmpnPcRv6nV-yPCG4GIcVfqgYqOz8XFbuYo4-_hFP9Qo5Yln6h1id8ng7XxOwCFsuLtsxf5WQC6wfPw9p1-5OzboDAfEm0JBIQ2MzcQkUchkwckkQkIMUPsxoUHs7wMg8Vt7K1ZZtv6FdL1MWW494",
            "scope": "GOOGLE",
            "types": [
                "campground",
                "park",
                "lodging",
                "establishment"
            ],
            "vicinity": "Germany"
        },
        {
            "geometry": {
                "location": {
                    "lat": 51.34591,
                    "lng": 12.35046
                }
            },
            "icon": "http://maps.gstatic.com/mapfiles/place_api/icons/travel_agent-71.png",
            "id": "3ae3dc19e6059274bba76159afc135fb304090a3",
            "name": "LE-Tours Ferienlager, Jugendcamp und Klassenfahrten",
            "opening_hours": {
                "open_now": true,
                "weekday_text": []
            },
            "photos": [
                {
                    "height": 283,
                    "html_attributions": [],
                    "photo_reference": "CnRnAAAAgtmbk_zP7J2eJG4jEXOXF9j9uB-Tp81GmN4_ISAD-6iJt1tehoT_b0fKfpk58JGbPE-vR4RR54O8kF19fboKs3OHcha-tVG9I3Tcm0GY84a2KffpcbXLKH2JIE-4QlWqaomxNpME3fD8S3_yEfOPsRIQ8MjjU8CcB_LFXkzS3lJhyRoUH6WjodkWkYUrK0h5U4rwbHaG1yU",
                    "width": 283
                }
            ],
            "place_id": "ChIJI4c1FPr3pkcR5HDPHcfgnuw",
            "rating": 4.1,
            "reference": "CpQBiAAAAC0fqp602vKHisGWV3SQ08EYzSSXgBlkdaOSZ73KAr-5JjSSw73AF1WjoQFo2tBt6IY-arwoqTuxyg-8_sjqSv4oWgpXyJlSERJXYyrpi66fnczj0v43mTGUKva7lTFZcyegju_LwEw9Rc4vyuUNdnAQtyGBRoZyhMeS_C-2PSIoNMgSsL6kC8ZEkOo7broJTRIQ1CgKx3wK9sLgdag4AuQUKhoUWOHb_mSOhc2zr7VL_lNvIUks8CU",
            "scope": "GOOGLE",
            "types": [
                "travel_agency",
                "campground",
                "park",
                "lodging",
                "establishment"
            ],
            "vicinity": "Am Sportforum 3, Leipzig"
        },
        {
            "geometry": {
                "location": {
                    "lat": 51.136044,
                    "lng": 12.129244
                }
            },
            "icon": "http://maps.gstatic.com/mapfiles/place_api/icons/generic_business-71.png",
            "id": "2cacf3b3b8af1684fa16cd443cea04931573d215",
            "name": "Freizeitpark Pirkau",
            "opening_hours": {
                "open_now": false,
                "weekday_text": []
            },
            "place_id": "ChIJ-UTN6YrrpkcRTHVbJo--JYg",
            "reference": "CnRnAAAAsRQEApfv-GikhmL1gLsDxX8ZH7MQICE9I6yFfYu6J-92PfABzjE7XViOqQC0tFPM-75vkfIKmcJ9lKfydNVzC5ZsNeuDGl9e0fK6Hi9KnMgCuQMs-uNpYXHgZHDOVe646f2TXRNLg_1QI73mWGj1eRIQxvvyCjLYpYSAiYaaQotjCxoUAshZ1P7K4zob-9sT31S0ce5aXeQ",
            "scope": "GOOGLE",
            "types": [
                "park",
                "establishment"
            ],
            "vicinity": "Germany"
        },
        {
            "geometry": {
                "location": {
                    "lat": 51.34591,
                    "lng": 12.35046
                }
            },
            "icon": "http://maps.gstatic.com/mapfiles/place_api/icons/generic_business-71.png",
            "id": "e9a008a48cf22f6eaafb7f10edef621fc503c769",
            "name": "Verein Leipziger Wanderer e.V.",
            "opening_hours": {
                "open_now": true,
                "weekday_text": []
            },
            "place_id": "ChIJycYeE5P3pkcR02ojG8_sntQ",
            "reference": "CoQBcgAAALPqZb7bmgbAqNX7IvsNdGGCTiTVv4XWYpseCAK8heBGiWCdmmOOBEEfaGUfaiu47sY2H0n9l6N1qJ7swDb1dqFbpFZXwZI44r9nbYe1lStwJGQBj-GClPela_L2Ekl-zRNsOgKzag0LzOJ9lJgSpvIlJu-oHD-Ivfd_hmenUfR3EhDLfxJoGderdOEaIoKTo4cyGhT1khCURI2lrWl7vqiTEQvRZfZf0Q",
            "scope": "GOOGLE",
            "types": [
                "park",
                "establishment"
            ],
            "vicinity": "Am Sportforum 3, Leipzig"
        }
    ]